 <svg class="h-6 w-6 text-white" xmlns="http://www.w3.org/2000/svg" fill="none" viewBox="-13 -13 50 50"
                    stroke="#fff" aria-hidden="true">
                    <path stroke-linecap="round" stroke-linejoin="round" stroke-width="2"
                        d="M12 15v2m-6 4h12a2 2 0 002-2v-6a2 2 0 00-2-2H6a2 2 0 00-2 2v6a2 2 0 002 2zm10-10V7a4 4 0 00-8 0v4h8z">
                    </path>
                </svg>